%YAML 1.1
%TAG !u! tag:unity3d.com,2011:
--- !u!1045 &1
EditorBuildSettings:
  m_ObjectHideFlags: 0
  serializedVersion: 2
  m_Scenes:
  - enabled: 1
    path: Assets/Scenes/Menu.unity
    guid: 2307021694af2c94b8e4cb8706c1dd87
  - enabled: 1
    path: Assets/Scenes/game.unity
    guid: 9fc0d4010bbf28b4594072e72b8655ab
  - enabled: 1
    path: Assets/Scenes/Level2.unity
    guid: bff99a0ffc1ccca4dbf9730317cc90a5
  - enabled: 1
    path: Assets/Scenes/Level3.unity
    guid: 560d588443147004ab632919d0304819
  - enabled: 1
    path: Assets/Scenes/Level4.unity
    guid: a89506607ece15e43a2cf3139ba41b8c
  - enabled: 1
    path: Assets/Scenes/Level5.unity
    guid: 5f0639788a1143a4bbbb14ccde6a8b09
  - enabled: 1
    path: Assets/Scenes/Level6.unity
    guid: a4d2fb60f0c85f0478b6e41c5f3e566b
  m_configObjects: {}
